{
  "metadata": {
      "paginate": {
          "totalCount": 30,
          "pageCount": 30,
          "page": 1,
          "limit": 1,
          "sortBy": "DESC"
      }
  },
  "data": [
      {
          "type": "profiles",
          "id": "pT4THGoc8ocF62XuXW6SKKMSzuf2",
          "attributes": {
              "providerId": "pT4THGoc8ocF62XuXW6SKKMSzuf2",
              "name": "Braulio",
              "alias": "saimondev",
              "lastname": "Aguilar Simon",
              "email": "braulio.aguilar@culturacolectiva.com",
              "birthday": "1985-08-29",
              "status": "STATUS_ACTIVE",
              "role": "ROLE_ADMIN",
              "picture": "https://graph.facebook.com/110470069939572/picture",
              "slug": "braulio-aguilar",
              "position": "develop",
              "description": "developer",
              "facebook": "brauio45678",
              "twitter": "saimondev"
          }
      }
  ]
}