{
  "metadata": {
      "paginate": {
          "totalCount": 30,
          "pageCount": 3,
          "page": 1,
          "limit": 10,
          "sortBy": "DESC"
      }
  },
  "data": [
      {
          "type": "profiles",
          "id": "pT4THGoc8ocF62XuXW6SKKMSzuf2",
          "attributes": {
              "providerId": "pT4THGoc8ocF62XuXW6SKKMSzuf2",
              "name": "Braulio",
              "alias": "saimondev",
              "lastname": "Aguilar Simon",
              "email": "braulio.aguilar@culturacolectiva.com",
              "birthday": "1985-08-29",
              "status": "STATUS_ACTIVE",
              "role": "ROLE_ADMIN",
              "picture": "https://graph.facebook.com/110470069939572/picture",
              "slug": "braulio-aguilar",
              "position": "develop",
              "description": "developer",
              "facebook": "brauio45678",
              "twitter": "saimondev"
          }
      },
      {
          "type": "profiles",
          "id": "KLf1SDcS7fMcpFleVKUPLH0Joaz1",
          "attributes": {
              "providerId": "KLf1SDcS7fMcpFleVKUPLH0Joaz1",
              "name": "Rene Batlle",
              "email": "renebatlle@hotmail.com",
              "status": "STATUS_ACTIVE",
              "role": "ROLE_EDITOR",
              "picture": "https://graph.facebook.com/10156396423062630/picture"
          }
      },
      {
          "type": "profiles",
          "id": "aCBFaMDsQXSU799dF6Y7OoK0Ngy1",
          "attributes": {
              "providerId": "aCBFaMDsQXSU799dF6Y7OoK0Ngy1",
              "name": "Jose Luis Cruz Rodriguez",
              "email": "joseluis.cruz@gmail.com",
              "status": "STATUS_ACTIVE",
              "role": "ROLE_EDITOR",
              "picture": "https://graph.facebook.com/1845930505437981/picture"
          }
      },
      {
          "type": "profiles",
          "id": "Aup2aN8WOzSYpAZLCCTLm1Pknhs2",
          "attributes": {
              "providerId": "Aup2aN8WOzSYpAZLCCTLm1Pknhs2",
              "name": "Leopoldo Caballero",
              "email": "leopoldo.caballero@culturacolectiva.com",
              "status": "STATUS_ACTIVE",
              "role": "ROLE_EDITOR",
              "picture": "https://scontent.xx.fbcdn.net/v/t1.0-1/p100x100/20768008_105267180199855_4351187674485604804_n.jpg?oh=38d5e0c1495c5d0a7c29b060b2622b7d&oe=5AD82B5C"
          }
      },
      {
          "type": "profiles",
          "id": "s0ko9OuVgiaMCDPDbci3RAhdDaL2",
          "attributes": {
              "providerId": "s0ko9OuVgiaMCDPDbci3RAhdDaL2",
              "name": "Ulises Rivera Romo",
              "email": "ru_ciberlink@hotmail.com",
              "status": "STATUS_ACTIVE",
              "role": "ROLE_EDITOR",
              "picture": "https://graph.facebook.com/10215910042449472/picture"
          }
      },
      {
          "type": "profiles",
          "id": "kfuMfZSCX3QTW4cpnrOBsnGbeGE2",
          "attributes": {
              "providerId": "kfuMfZSCX3QTW4cpnrOBsnGbeGE2",
              "name": "Mau Patino",
              "email": "wblake18@hotmail.com",
              "status": "STATUS_ACTIVE",
              "role": "ROLE_ADMIN",
              "picture": "https://graph.facebook.com/10156905066912125/picture"
          }
      },
      {
          "type": "profiles",
          "id": "0h5ArqPHF3QB1da5AxlJ1R6Xioi2",
          "attributes": {
              "providerId": "0h5ArqPHF3QB1da5AxlJ1R6Xioi2",
              "name": "Julieta Sanguino",
              "email": "yluj_11@hotmail.com",
              "status": "STATUS_ACTIVE",
              "role": "ROLE_ADMIN",
              "picture": "https://graph.facebook.com/10215348091308613/picture"
          }
      },
      {
          "type": "profiles",
          "id": "t3CLv5uajDc2B80GstedqdTtfyo2",
          "attributes": {
              "providerId": "t3CLv5uajDc2B80GstedqdTtfyo2",
              "name": "Javier Diaz Chamorro",
              "email": "coderdiaz@gmail.com",
              "status": "STATUS_ACTIVE",
              "role": "ROLE_ADMIN",
              "picture": "https://graph.facebook.com/1705275136215515/picture"
          }
      },
      {
          "type": "profiles",
          "id": "PT1MPuwn6LWrRZhNocFHaz8vn7m1",
          "attributes": {
              "providerId": "PT1MPuwn6LWrRZhNocFHaz8vn7m1",
              "name": "Sm9zZSBDdWx0dXJh",
              "email": "jose.amador@culturacolectiva.com",
              "status": "STATUS_ACTIVE",
              "role": "ROLE_ADMIN",
              "picture": "https://graph.facebook.com/101237094166784/picture"
          }
      },
      {
          "type": "profiles",
          "id": "Nly1Q7ddMhbwMwhaoUZ0hlVoGnn2",
          "attributes": {
              "providerId": "Nly1Q7ddMhbwMwhaoUZ0hlVoGnn2",
              "name": "U2VyZ2lvIEPDoXJkZW5hcw==",
              "email": "sacardenasf@gmail.com",
              "status": "STATUS_ACTIVE",
              "role": "ROLE_EDITOR",
              "picture": "https://graph.facebook.com/10155931668006219/picture"
          }
      }
  ]
}