{
  "metadata": {
      "paginate": {
          "totalCount": 99,
          "pageCount": 9,
          "page": 2,
          "limit": 10,
          "sortBy": "DESC"
      }
  },
  "data": [
      {
          "type": "profiles",
          "id": "BUfceW0OGgSY9EFmYDGiYxpxCNA2",
          "attributes": {
              "providerId": "BUfceW0OGgSY9EFmYDGiYxpxCNA2",
              "name": "Carolaina Sunshine",
              "email": "caro_skb@hotmail.com",
              "status": "STATUS_ACTIVE",
              "role": "ROLE_EDITOR",
              "picture": "https://graph.facebook.com/10156177029757880/picture"
          }
      },
      {
          "type": "profiles",
          "id": "QqdJ0h7MpGRTSZFfNoHoSbxd9ku1",
          "attributes": {
              "providerId": "QqdJ0h7MpGRTSZFfNoHoSbxd9ku1",
              "name": "Chabe Cara",
              "email": "mariaisabelcarrascocarachards@gmail.com",
              "status": "STATUS_ACTIVE",
              "role": "ROLE_EDITOR",
              "picture": "https://graph.facebook.com/10156993767005625/picture"
          }
      },
      {
          "type": "profiles",
          "id": "QqdJ0h7MpGRTSZFfNoHoSbxd9ku1",
          "attributes": {
              "providerId": "QqdJ0h7MpGRTSZFfNoHoSbxd9ku1",
              "name": "Chabe Cara",
              "email": "mariaisabelcarrascocarachards@gmail.com",
              "status": "STATUS_ACTIVE",
              "role": "ROLE_AUTHOR",
              "picture": "https://graph.facebook.com/10156993767005625/picture"
          }
      },
      {
          "type": "profiles",
          "id": "5Kl5iiwVjeMH4HS4fuZUwPlpdyK2",
          "attributes": {
              "providerId": "5Kl5iiwVjeMH4HS4fuZUwPlpdyK2",
              "name": "Piola Kahuam",
              "email": "quepexpiola@hotmail.com",
              "status": "STATUS_ACTIVE",
              "role": "ROLE_EDITOR",
              "picture": "https://graph.facebook.com/10157332284920681/picture"
          }
      },
      {
          "type": "profiles",
          "id": "bYUtnkz90weOITugpI4uqnCzmBq2",
          "attributes": {
              "providerId": "bYUtnkz90weOITugpI4uqnCzmBq2",
              "name": "Jackie Gairaud",
              "email": "sunsetdoom@gmail.com",
              "status": "STATUS_ACTIVE",
              "role": "ROLE_EDITOR",
              "picture": "https://graph.facebook.com/10205335716190290/picture"
          }
      },
      {
          "type": "profiles",
          "id": "6smoQeaYkfgIKPkDBkZeHMHEuUA2",
          "attributes": {
              "providerId": "6smoQeaYkfgIKPkDBkZeHMHEuUA2",
              "name": "Iván Pasillas",
              "email": "ivanpasi@yahoo.com",
              "status": "STATUS_ACTIVE",
              "role": "ROLE_AUTHOR",
              "picture": "https://graph.facebook.com/10161005760850133/picture"
          }
      },
      {
          "type": "profiles",
          "id": "WvVaqzVNyKPbN28B4RZIv14QybJ3",
          "attributes": {
              "providerId": "WvVaqzVNyKPbN28B4RZIv14QybJ3",
              "name": "Zoralis Pérez",
              "email": "zoralis071@hotmail.com",
              "status": "STATUS_ACTIVE",
              "role": "ROLE_EDITOR",
              "picture": "https://graph.facebook.com/1583462918421132/picture"
          }
      },
      {
          "type": "profiles",
          "id": "rzc1cwBzukdlW5zphMPo2tckdXL2",
          "attributes": {
              "providerId": "rzc1cwBzukdlW5zphMPo2tckdXL2",
              "name": "Elizabeth Flores",
              "email": "elizabeth.flores@culturacolectiva.com",
              "status": "STATUS_ACTIVE",
              "role": "ROLE_EDITOR",
              "picture": "https://graph.facebook.com/142420580066891/picture"
          }
      },
      {
          "type": "profiles",
          "id": "CfOgoKqWcZaar4ceCEWWZasHzxr2",
          "attributes": {
              "providerId": "CfOgoKqWcZaar4ceCEWWZasHzxr2",
              "name": "Hugo Marquez",
              "email": "unwanted_9@hotmail.com",
              "status": "STATUS_ACTIVE",
              "role": "ROLE_EDITOR",
              "picture": "https://graph.facebook.com/10155968362643481/picture"
          }
      },
      {
          "type": "profiles",
          "id": "qzDSVrnzNXWmBoCBskhd1hUmxWx1",
          "attributes": {
              "providerId": "qzDSVrnzNXWmBoCBskhd1hUmxWx1",
              "name": "Oliver G. Alvar",
              "email": "juan.albin@culturacolectiva.com",
              "status": "STATUS_ACTIVE",
              "role": "ROLE_EDITOR",
              "picture": "https://graph.facebook.com/142307490067748/picture"
          }
      }
  ]
}