{
  "metadata":{
     "paginate":{
        "totalCount":157,
        "pageCount":15,
        "page":3,
        "limit":10,
        "sortBy":"DESC"
     }
  },
  "data":[
     {
        "type":"profiles",
        "id":"svlPC4PORZhkveohH7TzslT6zbJ2",
        "attributes":{
           "providerId":"svlPC4PORZhkveohH7TzslT6zbJ2",
           "name":"Corina Mendoza",
           "email":"corinalaplumaletal@hotmail.com",
           "status":"STATUS_ACTIVE",
           "role":"ROLE_EDITOR",
           "picture":"https://graph.facebook.com/10218252120880648/picture"
        }
     },
     {
        "type":"profiles",
        "id":"9R49gE7iMJRkdRMUy2gdWj1ELdA2",
        "attributes":{
           "providerId":"9R49gE7iMJRkdRMUy2gdWj1ELdA2",
           "name":"Mariel Espindola",
           "email":"mariel_1502@hotmail.com",
           "status":"STATUS_ACTIVE",
           "role":"ROLE_EDITOR",
           "picture":"https://graph.facebook.com/10156746162967394/picture"
        }
     },
     {
        "type":"profiles",
        "id":"Y7LjCdW0LbZqovq4nYLLgzwYsqy2",
        "attributes":{
           "providerId":"Y7LjCdW0LbZqovq4nYLLgzwYsqy2",
           "name":"Eduardo Limón",
           "email":"eduardo.citronne@live.com.mx",
           "status":"STATUS_ACTIVE",
           "role":"ROLE_EDITOR",
           "picture":"https://graph.facebook.com/2152899521408286/picture"
        }
     },
     {
        "type":"profiles",
        "id":"a8Eu4WvNVCempW6av94O07JcguW2",
        "attributes":{
           "providerId":"a8Eu4WvNVCempW6av94O07JcguW2",
           "name":"Natalia Lomelí Bautista",
           "email":"naty-pink94@hotmail.com",
           "status":"STATUS_ACTIVE",
           "role":"ROLE_EDITOR",
           "picture":"https://graph.facebook.com/2195285433868132/picture"
        }
     },
     {
        "type":"profiles",
        "id":"hoBCTh0lVbd9Smd7b3zXsJRAgQE3",
        "attributes":{
           "providerId":"hoBCTh0lVbd9Smd7b3zXsJRAgQE3",
           "name":"Alejadro I. López",
           "email":"alejandro.lopez@culturacolectiva.com",
           "status":"STATUS_ACTIVE",
           "role":"ROLE_EDITOR",
           "picture":"https://graph.facebook.com/451324898597169/picture"
        }
     },
     {
        "type":"profiles",
        "id":"NrK0p7hR2YcAVy1Lke41bTSCJN52",
        "attributes":{
           "providerId":"NrK0p7hR2YcAVy1Lke41bTSCJN52",
           "name":"Beatriz Esquivel",
           "email":"khio15@hotmail.com",
           "status":"STATUS_ACTIVE",
           "role":"ROLE_EDITOR",
           "picture":"https://graph.facebook.com/10156801320894921/picture"
        }
     },
     {
        "type":"profiles",
        "id":"mj531veNbyfxeoALtxalC338dcs1",
        "attributes":{
           "providerId":"mj531veNbyfxeoALtxalC338dcs1",
           "name":"Diana Garrido",
           "email":"didi_no.1@hotmail.com",
           "status":"STATUS_ACTIVE",
           "role":"ROLE_EDITOR",
           "picture":"https://graph.facebook.com/10212835040606694/picture"
        }
     },
     {
        "type":"profiles",
        "id":"8feVy2ND0CVWRgMk3I9xBVdqtrn2",
        "attributes":{
           "providerId":"8feVy2ND0CVWRgMk3I9xBVdqtrn2",
           "name":"Alonso Martínez",
           "email":"alonso.j.martz@gmail.com",
           "status":"STATUS_ACTIVE",
           "role":"ROLE_EDITOR",
           "picture":"https://graph.facebook.com/10217218256223875/picture"
        }
     },
     {
        "type":"profiles",
        "id":"5E404NaSa3YnAjXIvMkH8Y9ptpr2",
        "attributes":{
           "providerId":"5E404NaSa3YnAjXIvMkH8Y9ptpr2",
           "name":"Malú Zárate",
           "email":"malucha77@hotmail.com",
           "status":"STATUS_ACTIVE",
           "role":"ROLE_EDITOR",
           "picture":"https://graph.facebook.com/10158361159120329/picture"
        }
     },
     {
        "type":"profiles",
        "id":"h6qKOBNCdKYFUswGVgjueKRbSd23",
        "attributes":{
           "providerId":"h6qKOBNCdKYFUswGVgjueKRbSd23",
           "name":"Farah Slim",
           "email":"farah_sp@hotmail.com",
           "status":"STATUS_ACTIVE",
           "role":"ROLE_EDITOR",
           "picture":"https://graph.facebook.com/10157995178190760/picture"
        }
     }
  ]
}